{
	"general": {
		"background": "/img/main.png",
		"elements":[
			{
				"type":"text",
				"description":"Congelados",
				"x":773,
				"y":373,
				"width":180,
				"height":50,
				"font":"Arial",
				"fontsize":24
			},
			{
				"type":"text",
				"description":"Frescos 2",
				"x":1094,
				"y":373,
				"width":180,
				"height":50,
				"font":"Arial",
				"fontsize":24
			},
			{
				"type":"text",
				"description":"Frescos 3",
				"x":1150,
				"y":88,
				"width":180,
				"height":50,
				"font":"Arial",
				"fontsize":24
			},
			{
				"type":"text",
				"description":"Bitempera 4",
				"x":813,
				"y":88,
				"width":180,
				"height":50,
				"font":"Arial",
				"fontsize":24
			},
			{
				"type":"text",
				"description":"Bitempera 5",
				"x":419,
				"y":261,
				"width":180,
				"height":50,
				"font":"Arial",
				"fontsize":24
			},
			{
				"type":"text",
				"description":"Bitempera 6",
				"x":87,
				"y":261,
				"width":180,
				"height":50,
				"font":"Arial",
				"fontsize":24
			},
			{
				"type":"text",
				"description":"Frescos 7",
				"x":1022,
				"y":102,
				"width":100,
				"height":50,
				"font":"Arial",
				"fontsize":18
			},
			{
				"type":"power",
				"description":"Consumo Global Cuadro Interior (Sala de máquinas)",
				"units":"kVA",
				"x":676,
				"y":250,
				"width":100,
				"height":50,
				"entity":"IoTConnector:00027",
				"attribute":"analogInput_614c6767bc1aef40ce621780"
			},
			{
				"type":"power",
				"description":"Consumo Global Cuadro Central (Sala de máquinas)",
				"units":"kVA",
				"x":676,
				"y":142,
				"width":100,
				"height":50,
				"entity":"IoTConnector:00027",
				"attribute":"analogInput_614c6768bc1aef4a9462181c"
			},
			{
				"type":"power",
				"description":"Consumo Global Cuadro Exterior (Sala de máquinas)",
				"units":"kVA",
				"x":676,
				"y":22,
				"width":100,
				"height":50,
				"entity":"IoTConnector:00027",
				"attribute":"analogInput_614c6768bc1aeff6a96218ee"
			},
			{
				"type":"power",
				"description":"Consumo Congelados",
				"units":"kVA",
				"x":786,
				"y":310,
				"width":100,
				"height":50,
				"entity":"ConsumosPorCamaras",
				"attribute":"analogInput_61551006c6b8ec8f210ecc5d"
			},
			{
				"type":"power",
				"description":"Consumo Frescos 2",
				"units":"kVA",
				"x":1112,
				"y":310,
				"width":100,
				"height":50,
				"entity":"ConsumosPorCamaras",
				"attribute":"analogInput_61551006c6b8ec4d200ecc75"
			},
			{
				"type":"power",
				"description":"Consumo Bitempera 4",
				"units":"kVA",
				"x":831,
				"y":22,
				"width":100,
				"height":50,
				"entity":"ConsumosPorCamaras",
				"attribute":"analogInput_61551006c6b8ecd7120ecc8d"
			},
			{
				"type":"power",
				"description":"Consumo Bitempera 5",
				"units":"kVA",
				"x":430,
				"y":144,
				"width":100,
				"height":50,
				"entity":"ConsumosPorCamaras",
				"attribute":"analogInput_61551007c6b8ec203b0ecca5"
			},
			{
				"type":"power",
				"description":"Consumo Bitempera 6",
				"units":"kVA",
				"x":102,
				"y":144,
				"width":100,
				"height":50,
				"entity":"ConsumosPorCamaras",
				"attribute":"analogInput_61551007c6b8ec56240eccbd"
			},
			{
				"type":"power",
				"description":"Consumo Muelle",
				"units":"kVA",
				"x":1299,
				"y":291,
				"width":100,
				"height":50,
				"entity":"ConsumosPorCamaras",
				"attribute":"analogInput_61af7c4a37c704101927b213"
			},
			{
				"type":"door",
				"description":"Muelle 1",
				"units":"",
				"x":1357,
				"y":520,
				"width":34,
				"height":48,
				"pathopen":"/img/open-door-34x48.png",
				"pathclosed":"/img/closed-door-34x48.png",
				"entity":"IoTConnector:00028",
				"attribute":"digitalInput_614cc7868562c05cfcf16cb8"
			},
			{
				"type":"door",
				"description":"Muelle 2",
				"units":"",
				"x":1357,
				"y":460,
				"width":34,
				"height":48,
				"pathopen":"/img/open-door-34x48.png",
				"pathclosed":"/img/closed-door-34x48.png",
				"entity":"IoTConnector:00028",
				"attribute":"digitalInput_614cc7868562c0553df16cbb"
			},
			{
				"type":"door",
				"description":"Muelle 3",
				"units":"",
				"x":1357,
				"y":400,
				"width":34,
				"height":48,
				"pathopen":"/img/open-door-34x48.png",
				"pathclosed":"/img/closed-door-34x48.png",
				"entity":"IoTConnector:00028",
				"attribute":"digitalInput_614cc7868562c0aba3f16cbe"
			},
			{
				"type":"door",
				"description":"Muelle 4",
				"units":"",
				"x":1357,
				"y":340,
				"width":34,
				"height":48,
				"pathopen":"/img/open-door-34x48.png",
				"pathclosed":"/img/closed-door-34x48.png",
				"entity":"IoTConnector:00028",
				"attribute":"digitalInput_614cc7868562c00973f16cc1"
			},
			{
				"type":"door",
				"description":"Muelle 5",
				"units":"",
				"x":1357,
				"y":202,
				"width":34,
				"height":48,
				"pathopen":"/img/open-door-34x48.png",
				"pathclosed":"/img/closed-door-34x48.png",
				"entity":"IoTConnector:00028",
				"attribute":"digitalInput_614cc7868562c09d96f16cc4"
			},
			{
				"type":"door",
				"description":"Muelle 6",
				"units":"",
				"x":1357,
				"y":142,
				"width":34,
				"height":48,
				"pathopen":"/img/open-door-34x48.png",
				"pathclosed":"/img/closed-door-34x48.png",
				"entity":"IoTConnector:00028",
				"attribute":"digitalInput_614cc7868562c0785cf16cc7"
			},
			{
				"type":"door",
				"description":"Muelle 7",
				"units":"",
				"x":1357,
				"y":82,
				"width":34,
				"height":48,
				"pathopen":"/img/open-door-34x48.png",
				"pathclosed":"/img/closed-door-34x48.png",
				"entity":"IoTConnector:00028",
				"attribute":"digitalInput_614cc7868562c03a19f16cca"
			},
			{
				"type":"door",
				"description":"Muelle 8",
				"units":"",
				"x":1357,
				"y":22,
				"width":34,
				"height":48,
				"pathopen":"/img/open-door-34x48.png",
				"pathclosed":"/img/closed-door-34x48.png",
				"entity":"IoTConnector:00028",
				"attribute":"digitalInput_614cc7868562c09bcdf16ccd"
			},
			{
				"type":"door",
				"description":"Salida lateral Muelle",
				"units":"",
				"x":1320,
				"y":547,
				"width":34,
				"height":48,
				"pathopen":"/img/open-door-34x48.png",
				"pathclosed":"/img/closed-door-34x48.png",
				"entity":"IoTConnector:00028",
				"attribute":"digitalInput_614cc7868562c099a5f16cd0"
			},
			{
				"type":"door",
				"description":"Muelle a Frescos 2",
				"units":"",
				"x":1295,
				"y":460,
				"width":34,
				"height":48,
				"pathopen":"/img/open-door-34x48.png",
				"pathclosed":"/img/closed-door-34x48.png",
				"entity":"IoTConnector:00028",
				"attribute":"digitalInput_614cc7868562c00ce1f16cd3"
			},
			{
				"type":"door",
				"description":"Muelle a Frescos 3",
				"units":"",
				"x":1295,
				"y":142,
				"width":34,
				"height":48,
				"pathopen":"/img/open-door-34x48.png",
				"pathclosed":"/img/closed-door-34x48.png",
				"entity":"IoTConnector:00028",
				"attribute":"digitalInput_614cc7868562c05674f16cd6"
			},
			{
				"type":"door",
				"description":"Frescos 2 a Congelados",
				"units":"",
				"x":983,
				"y":437,
				"width":34,
				"height":48,
				"pathopen":"/img/open-door-34x48.png",
				"pathclosed":"/img/closed-door-34x48.png",
				"entity":"IoTConnector:00027",
				"attribute":"digitalInput_614cc3e98562c065f3f16caf"
			},
			{
				"type":"door",
				"description":"Frescos 2 a Frescos 7",
				"units":"",
				"x":1024,
				"y":277,
				"width":34,
				"height":48,
				"pathopen":"/img/open-door-34x48.png",
				"pathclosed":"/img/closed-door-34x48.png",
				"entity":"IoTConnector:00027",
				"attribute":"digitalInput_614cc3e98562c0d804f16cac"
			},
			{
				"type":"door",
				"description":"Frescos 3 a Frescos 7",
				"units":"",
				"x":1091,
				"y":155,
				"width":34,
				"height":48,
				"pathopen":"/img/open-door-34x48.png",
				"pathclosed":"/img/closed-door-34x48.png",
				"entity":"IoTConnector:00027",
				"attribute":"digitalInput_614cc3e98562c06e6cf16ca6"
			},
			{
				"type":"door",
				"description":"Frescos 7 a Bitempera 4",
				"units":"",
				"x":998,
				"y":155,
				"width":34,
				"height":48,
				"pathopen":"/img/open-door-34x48.png",
				"pathclosed":"/img/closed-door-34x48.png",
				"entity":"IoTConnector:00027",
				"attribute":"digitalInput_614cc3e98562c007eaf16ca9"
			},
			{
				"type":"temperature",
				"description":"Muelle a Frescos 2",
				"units":"ºC",
				"x":1277,
				"y":429,
				"width":80,
				"height":30,
				"entity":"MG0101E20018500010",
				"attribute":"analogInput_614c61bebc1aef45e36216a5"
			},
            {
                "type":"humidity",
                "description":"Muelle a Frescos 2",
                "units":"%",
                "x":1257,
                "y":397,
                "width":100,
                "height":30,
                "entity":"MG0101E20018500010",
                "attribute":"analogInput_614c61bebc1aef1fad6216a8"
            },
            {
                "type":"co2",
                "description":"Muelle a Frescos 2",
                "units":"ppm",
                "x":1257,
                "y":365,
                "width":100,
                "height":30,
                "entity":"MG0101E20018500010",
                "attribute":"analogInput_614c61bebc1aef58366216ab"
            },
			{
				"type":"temperature",
				"description":"Muelle a Frescos 3",
				"units":"ºC",
				"x":1277,
				"y":191,
				"width":80,
				"height":30,
				"entity":"MG0101E20018500011",
				"attribute":"analogInput_614c61dbbc1aef79756216b3"
			},
            {
                "type":"humidity",
                "description":"Muelle a Frescos 3",
                "units":"%",
                "x":1257,
                "y":223,
                "width":100,
                "height":30,
                "entity":"MG0101E20018500011",
                "attribute":"analogInput_614c61dbbc1aef00a66216b6"
            },
            {
                "type":"co2",
                "description":"Muelle a Frescos 3",
                "units":"ppm",
                "x":1257,
                "y":255,
                "width":100,
                "height":30,
                "entity":"MG0101E20018500011",
                "attribute":"analogInput_614c61dbbc1aefd06a6216b9"
            },
			{
				"type":"temperature",
				"description":"Exterior",
				"units":"ºC",
				"x":365,
				"y":59,
				"width":80,
				"height":30,
				"entity":"MD0101E20010700093",
				"attribute":"analogInput_61a672ad37c70439bd27b1f7"
			},
			{
				"type":"temperature",
				"description":"Congelados",
				"units":"ºC",
				"x":794,
				"y":420,
				"width":80,
				"height":30,
				"entity":"IoTConnector:00027",
				"attribute":"analogInput_614cc3b98562c0f3a2f16c91"
			},
			{
				"type":"temperature",
				"description":"Frescos 2",
				"units":"ºC",
				"x":1122,
				"y":420,
				"width":80,
				"height":30,
				"entity":"IoTConnector:00027",
				"attribute":"analogInput_614cc3b98562c0366bf16c94"
			},
			{
				"type":"temperature",
				"description":"Frescos 3.1",
				"units":"ºC",
				"x":1122,
				"y":250,
				"width":80,
				"height":30,
				"entity":"IoTConnector:00027",
				"attribute":"analogInput_614cc3b98562c0172ef16c97"
			},
			{
				"type":"temperature",
				"description":"Frescos 3.2",
				"units":"ºC",
				"x":1122,
				"y":150,
				"width":80,
				"height":30,
				"entity":"IoTConnector:00027",
				"attribute":"analogInput_61a75f8537c7048cb827b200"
			},
			{
				"type":"temperature",
				"description":"Frescos 7",
				"units":"ºC",
				"x":1022,
				"y":218,
				"width":80,
				"height":30,
				"entity":"IoTConnector:00027",
				"attribute":"analogInput_614cc3b98562c047f6f16c9a"
			},
			{
				"type":"temperature",
				"description":"Bitempera 4",
				"units":"ºC",
				"x":841,
				"y":141,
				"width":80,
				"height":30,
				"entity":"IoTConnector:00027",
				"attribute":"analogInput_614cc3b98562c0e679f16c9d"
			},
			{
				"type":"temperature",
				"description":"Bitempera 5",
				"units":"ºC",
				"x":450,
				"y":344,
				"width":80,
				"height":30,
				"entity":"IoTConnector:00027",
				"attribute":"analogInput_614cc3b98562c068fff16ca0"
			},
			{
				"type":"temperature",
				"description":"Bitempera 6",
				"units":"ºC",
				"x":109,
				"y":344,
				"width":80,
				"height":30,
				"entity":"IoTConnector:00027",
				"attribute":"analogInput_614cc3b98562c084ebf16ca3"
			},
			{
				"type":"humidity",
				"description":"Exterior",
				"units":"%",
				"x":450,
				"y":59,
				"width":80,
				"height":30,
				"entity":"MD0101E20010700093",
				"attribute":"analogInput_61a672ad37c704f25927b1fa"
			},
			{
				"type":"linktocamara",
				"description":"Muelle",
				"x":150,
				"y":250,
				"offsetcamara":0
			},
			{
				"type":"linktocamara",
				"description":"Congelados",
				"x":150,
				"y":250,
				"offsetcamara":1
			},
			{
				"type":"linktocamara",
				"description":"Frescos 2",
				"x":150,
				"y":250,
				"offsetcamara":2
			},
			{
				"type":"linktocamara",
				"description":"Bitempera 4",
				"x":150,
				"y":250,
				"offsetcamara":3
			},
			{
				"type":"linktocamara",
				"description":"Bitempera 5",
				"x":150,
				"y":250,
				"offsetcamara":4
			},
			{
				"type":"linktocamara",
				"description":"Bitempera 6",
				"x":150,
				"y":250,
				"offsetcamara":5
			}
		]
	},
	"camaras":[
		{
			"background":"/img/muelle.png",
			"description":"Muelle",
			"width":200,
			"height":600,
			"power":[
				{
					"type":"activepower",
					"entity":"ConsumosPorCamaras",
					"attribute":"analogInput_61af7c4a37c704e91927b20a"
				},
				{
					"type":"reactiveinductivepower",
					"entity":"ConsumosPorCamaras",
					"attribute":"analogInput_61af7c4a37c704ef4227b20d"
				},
				{
					"type":"reactivecapacitivepower",
					"entity":"ConsumosPorCamaras",
					"attribute":"analogInput_61af7c4a37c704dbc527b210"
				},
				{
					"type":"apparentpower",
					"entity":"ConsumosPorCamaras",
					"attribute":"analogInput_61af7c4a37c704101927b213"
				}
			],
			"energy":[
				{
					"type":"activeenergy",
					"entity":"ConsumosPorCamaras",
					"attribute":"analogInput_61af7c4a37c70427ff27b216"
				},
				{
					"type":"reactiveinductiveenergy",
					"entity":"ConsumosPorCamaras",
					"attribute":"analogInput_61af7c4a37c7045d3e27b219"
				},
				{
					"type":"reactivecapacitiveenergy",
					"entity":"ConsumosPorCamaras",
					"attribute":"analogInput_61af7c4a37c704bd5b27b21c"
				},
				{
					"type":"apparentenergy",
					"entity":"ConsumosPorCamaras",
					"attribute":"analogInput_61af7c4a37c70490c727b21f"
				}
			],
			"other":[
				{
					"type":"text",
					"description":"Muelle",
					"x":16,
					"y":46,
					"width":100,
					"height":50,
					"font":"Arial",
					"fontsize":18
				},
				{
					"type":"door",
					"description":"Muelle 1",
					"units":"",
					"x":112,
					"y":520,
					"width":68,
					"height":48,
                                        "pathopen":"/img/open-door-68x48.png",
                                        "pathclosed":"/img/closed-door-68x48.png",
					"entity":"IoTConnector:00028",
					"attribute":"digitalInput_614cc7868562c05cfcf16cb8"
				},
				{
					"type":"door",
					"description":"Muelle 2",
					"units":"",
					"x":112,
					"y":460,
					"width":68,
					"height":48,
                                        "pathopen":"/img/open-door-68x48.png",
                                        "pathclosed":"/img/closed-door-68x48.png",
					"entity":"IoTConnector:00028",
					"attribute":"digitalInput_614cc7868562c0553df16cbb"
				},
				{
					"type":"door",
					"description":"Muelle 3",
					"units":"",
					"x":112,
					"y":400,
					"width":68,
					"height":48,
                                        "pathopen":"/img/open-door-68x48.png",
                                        "pathclosed":"/img/closed-door-68x48.png",
					"entity":"IoTConnector:00028",
					"attribute":"digitalInput_614cc7868562c0aba3f16cbe"
				},
				{
					"type":"door",
					"description":"Muelle 4",
					"units":"",
					"x":112,
					"y":340,
					"width":68,
					"height":48,
                                        "pathopen":"/img/open-door-68x48.png",
                                        "pathclosed":"/img/closed-door-68x48.png",
					"entity":"IoTConnector:00028",
					"attribute":"digitalInput_614cc7868562c00973f16cc1"
				},
				{
					"type":"door",
					"description":"Muelle 5",
					"units":"",
					"x":112,
					"y":202,
					"width":68,
					"height":48,
                                        "pathopen":"/img/open-door-68x48.png",
                                        "pathclosed":"/img/closed-door-68x48.png",
					"entity":"IoTConnector:00028",
					"attribute":"digitalInput_614cc7868562c09d96f16cc4"
				},
				{
					"type":"door",
					"description":"Muelle 6",
					"units":"",
					"x":112,
					"y":142,
					"width":68,
					"height":48,
                                        "pathopen":"/img/open-door-68x48.png",
                                        "pathclosed":"/img/closed-door-68x48.png",
					"entity":"IoTConnector:00028",
					"attribute":"digitalInput_614cc7868562c0785cf16cc7"
				},
				{
					"type":"door",
					"description":"Muelle 7",
					"units":"",
					"x":112,
					"y":82,
					"width":68,
					"height":48,
                                        "pathopen":"/img/open-door-68x48.png",
                                        "pathclosed":"/img/closed-door-68x48.png",
					"entity":"IoTConnector:00028",
					"attribute":"digitalInput_614cc7868562c03a19f16cca"
				},
				{
					"type":"door",
					"description":"Muelle 8",
					"units":"",
					"x":112,
					"y":22,
					"width":68,
					"height":48,
                                        "pathopen":"/img/open-door-68x48.png",
                                        "pathclosed":"/img/closed-door-68x48.png",
					"entity":"IoTConnector:00028",
					"attribute":"digitalInput_614cc7868562c09bcdf16ccd"
				},
				{
					"type":"door",
					"description":"Salida lateral Muelle",
					"units":"",
					"x":25,
					"y":547,
					"width":68,
					"height":48,
                                        "pathopen":"/img/open-door-68x48.png",
                                        "pathclosed":"/img/closed-door-68x48.png",
					"entity":"IoTConnector:00028",
					"attribute":"digitalInput_614cc7868562c099a5f16cd0"
				},
				{
					"type":"door",
					"description":"Muelle a Frescos 2",
					"units":"",
					"x":1,
					"y":460,
					"width":68,
					"height":48,
                                        "pathopen":"/img/open-door-68x48.png",
                                        "pathclosed":"/img/closed-door-68x48.png",
					"entity":"IoTConnector:00028",
					"attribute":"digitalInput_614cc7868562c00ce1f16cd3"
				},
				{
					"type":"door",
					"description":"Muelle a Frescos 3",
					"units":"",
					"x":1,
					"y":142,
					"width":68,
					"height":48,
                                        "pathopen":"/img/open-door-68x48.png",
                                        "pathclosed":"/img/closed-door-68x48.png",
					"entity":"IoTConnector:00028",
					"attribute":"digitalInput_614cc7868562c05674f16cd6"
				},
				{
					"type":"temperature",
					"description":"Muelle a Frescos 2",
					"units":"ºC",
					"x":1,
					"y":429,
					"width":100,
					"height":30,
					"entity":"MG0101E20018500010",
					"attribute":"analogInput_614c61bebc1aef45e36216a5"
				},
				{
					"type":"temperature",
					"description":"Muelle a Frescos 3",
					"units":"ºC",
					"x":1,
					"y":193,
					"width":100,
					"height":30,
					"entity":"MG0101E20018500011",
					"attribute":"analogInput_614c61dbbc1aef79756216b3"
				},
				{
					"type":"co2",
					"description":"Muelle a Frescos 2",
					"units":"ppm",
					"x":1,
					"y":367,
					"width":100,
					"height":30,
					"entity":"MG0101E20018500010",
					"attribute":"analogInput_614c61bebc1aef58366216ab"
				},
				{
					"type":"co2",
					"description":"Muelle a Frescos 3",
					"units":"ppm",
					"x":1,
					"y":255,
					"width":100,
					"height":30,
					"entity":"MG0101E20018500011",
					"attribute":"analogInput_614c61dbbc1aefd06a6216b9"
				},
				{
					"type":"humidity",
					"description":"Muelle a Frescos 2",
					"units":"%",
					"x":1,
					"y":398,
					"width":100,
					"height":30,
					"entity":"MG0101E20018500010",
					"attribute":"analogInput_614c61bebc1aef1fad6216a8"
				},
				{
					"type":"humidity",
					"description":"Muelle a Frescos 3",
					"units":"%",
					"x":1,
					"y":224,
					"width":100,
					"height":30,
					"entity":"MG0101E20018500011",
					"attribute":"analogInput_614c61dbbc1aef00a66216b6"
				}
			]
		},
		{
			"background":"/img/camaraCongelados.png",
			"description":"Congelados",
			"width":699,
			"height":600,
			"power":[
				{
					"type":"activepower",
					"entity":"ConsumosPorCamaras",
					"attribute":"analogInput_61551006c6b8eccad60ecc54"
				},
				{
					"type":"reactiveinductivepower",
					"entity":"ConsumosPorCamaras",
					"attribute":"analogInput_61551006c6b8ecaf220ecc57"
				},
				{
					"type":"reactivecapacitivepower",
					"entity":"ConsumosPorCamaras",
					"attribute":"analogInput_61551006c6b8ecfed00ecc5a"
				},
				{
					"type":"apparentpower",
					"entity":"ConsumosPorCamaras",
					"attribute":"analogInput_61551006c6b8ec8f210ecc5d"
				}
			],
			"energy":[
				{
					"type":"activeenergy",
					"entity":"ConsumosPorCamaras",
					"attribute":"analogInput_61551006c6b8ec29040ecc60"
				},
				{
					"type":"reactiveinductiveenergy",
					"entity":"ConsumosPorCamaras",
					"attribute":"analogInput_61551006c6b8ec2e160ecc63"
				},
				{
					"type":"reactivecapacitiveenergy",
					"entity":"ConsumosPorCamaras",
					"attribute":"analogInput_61551006c6b8ecf8360ecc66"
				},
				{
					"type":"apparentenergy",
					"entity":"ConsumosPorCamaras",
					"attribute":"analogInput_61551006c6b8eceeab0ecc69"
				}
			],
			"other":[
				{
					"type":"text",
					"description":"Congelados",
					"x":243,
					"y":159,
					"width":180,
					"height":50,
					"font":"Arial",
					"fontsize":18
				},
				{
					"type":"door",
					"description":"Congelados a Frescos 2",
					"units":"",
					"x":664,
					"y":335,
					"width":34,
					"height":48,
                                        "pathopen":"/img/open-door-34x48.png",
                                        "pathclosed":"/img/closed-door-34x48.png",
					"entity":"IoTConnector:00027",
					"attribute":"digitalInput_614cc3e98562c065f3f16caf"
				},
				{
					"type":"temperature",
					"description":"Temperatura 1 (centro)",
					"units":"ºC",
					"x":287,
					"y":284,
					"width":80,
					"height":30,
					"entity":"IoTConnector:00027",
					"attribute":"analogInput_614cc3b98562c0f3a2f16c91"
				}
			]
		},
		{
			"background":"/img/camaraFrescos2.png",
			"description":"Frescos 2",
			"width":671,
			"height":600,
			"power":[
				{
					"type":"activepower",
					"entity":"ConsumosPorCamaras",
					"attribute":"analogInput_61551006c6b8ec22390ecc6c"
				},
				{
					"type":"reactiveinductivepower",
					"entity":"ConsumosPorCamaras",
					"attribute":"analogInput_61551006c6b8ec24510ecc6f"
				},
				{
					"type":"reactivecapacitivepower",
					"entity":"ConsumosPorCamaras",
					"attribute":"analogInput_61551006c6b8ece70a0ecc72"
				},
				{
					"type":"apparentpower",
					"entity":"ConsumosPorCamaras",
					"attribute":"analogInput_61551006c6b8ec4d200ecc75"
				}
			],
			"energy":[
				{
					"type":"activeenergy",
					"entity":"ConsumosPorCamaras",
					"attribute":"analogInput_61551006c6b8ec22bc0ecc78"
				},
				{
					"type":"reactiveinductiveenergy",
					"entity":"ConsumosPorCamaras",
					"attribute":"analogInput_61551006c6b8ec5c760ecc7b"
				},
				{
					"type":"reactivecapacitiveenergy",
					"entity":"ConsumosPorCamaras",
					"attribute":"analogInput_61551006c6b8ec0a960ecc7e"
				},
				{
					"type":"apparentenergy",
					"entity":"ConsumosPorCamaras",
					"attribute":"analogInput_61551006c6b8ecf7f70ecc81"
				}
			],
			"other":[
				{
					"type":"text",
					"description":"Frescos 2",
					"x":236,
					"y":179,
					"width":180,
					"height":50,
					"font":"Arial",
					"fontsize":18
				},
				{
					"type":"door",
					"description":"Frescos 2 a Muelle",
					"units":"",
					"x":635,
					"y":380,
					"width":34,
					"height":48,
                                        "pathopen":"/img/open-door-34x48.png",
                                        "pathclosed":"/img/closed-door-34x48.png",
					"entity":"IoTConnector:00028",
					"attribute":"digitalInput_614cc7868562c00ce1f16cd3"
				},
				{
					"type":"door",
					"description":"Frescos 2 a Frescos 7",
					"units":"",
					"x":75,
					"y":3,
					"width":34,
					"height":48,
                                        "pathopen":"/img/open-door-34x48.png",
                                        "pathclosed":"/img/closed-door-34x48.png",
					"entity":"IoTConnector:00027",
					"attribute":"digitalInput_614cc3e98562c0d804f16cac"
				},
				{
					"type":"door",
					"description":"Frescos 2 a Congelados",
					"units":"",
					"x":1,
					"y":344,
					"width":34,
					"height":48,
                                        "pathopen":"/img/open-door-34x48.png",
                                        "pathclosed":"/img/closed-door-34x48.png",
					"entity":"IoTConnector:00027",
					"attribute":"digitalInput_614cc3e98562c065f3f16caf"
				},
				{
					"type":"temperature",
					"description":"Temperatura 1 (centro)",
					"units":"ºC",
					"x":285,
					"y":292,
					"width":80,
					"height":30,
					"entity":"IoTConnector:00027",
					"attribute":"analogInput_614cc3b98562c0366bf16c94"
				}
			]
		},
		{
			"background":"/img/camaraBitempera4.png",
			"description":"Bitempera 4",
			"width":564,
			"height":600,
			"power":[
				{
					"type":"activepower",
					"entity":"ConsumosPorCamaras",
					"attribute":"analogInput_61551006c6b8ec39100ecc84"
				},
				{
					"type":"reactiveinductivepower",
					"entity":"ConsumosPorCamaras",
					"attribute":"analogInput_61551006c6b8ec34420ecc87"
				},
				{
					"type":"reactivecapacitivepower",
					"entity":"ConsumosPorCamaras",
					"attribute":"analogInput_61551006c6b8ec014e0ecc8a"
				},
				{
					"type":"apparentpower",
					"entity":"ConsumosPorCamaras",
					"attribute":"analogInput_61551006c6b8ecd7120ecc8d"
				}
			],
			"energy":[
				{
					"type":"activeenergy",
					"entity":"ConsumosPorCamaras",
					"attribute":"analogInput_61551006c6b8ec9f070ecc90"
				},
				{
					"type":"reactiveinductiveenergy",
					"entity":"ConsumosPorCamaras",
					"attribute":"analogInput_61551006c6b8ec26910ecc93"
				},
				{
					"type":"reactivecapacitiveenergy",
					"entity":"ConsumosPorCamaras",
					"attribute":"analogInput_61551006c6b8ec37cd0ecc96"
				},
				{
					"type":"apparentenergy",
					"entity":"ConsumosPorCamaras",
					"attribute":"analogInput_61551006c6b8ec96b20ecc99"
				}
			],
			"other":[
				{
					"type":"text",
					"description":"Bitempera 4",
					"x":186,
					"y":175,
					"width":180,
					"height":50,
					"font":"Arial",
					"fontsize":18
				},
				{
					"type":"door",
					"description":"Bitempera 4 a Frescos 7",
					"units":"",
					"x":528,
					"y":329,
					"width":34,
					"height":48,
                                        "pathopen":"/img/open-door-34x48.png",
                                        "pathclosed":"/img/closed-door-34x48.png",
					"entity":"IoTConnector:00027",
					"attribute":"digitalInput_614cc3e98562c007eaf16ca9"
				},
				{
					"type":"temperature",
					"description":"Temperatura 1 (centro)",
					"units":"ºC",
					"x":230,
					"y":287,
					"width":80,
					"height":30,
					"entity":"IoTConnector:00027",
					"attribute":"analogInput_614cc3b98562c0e679f16c9d"
				}
			]
		},
		{
			"background":"/img/camaraBitempera5.png",
			"description":"Bitempera 5",
			"width":471,
			"height":600,
			"power":[
				{
					"type":"activepower",
					"entity":"ConsumosPorCamaras",
					"attribute":"analogInput_61551006c6b8ec7e5e0ecc9c"
				},
				{
					"type":"reactiveinductivepower",
					"entity":"ConsumosPorCamaras",
					"attribute":"analogInput_61551006c6b8ecb9dd0ecc9f"
				},
				{
					"type":"reactivecapacitivepower",
					"entity":"ConsumosPorCamaras",
					"attribute":"analogInput_61551007c6b8ec13ad0ecca2"
				},
				{
					"type":"apparentpower",
					"entity":"ConsumosPorCamaras",
					"attribute":"analogInput_61551007c6b8ec203b0ecca5"
				}
			],
			"energy":[
				{
					"type":"activeenergy",
					"entity":"ConsumosPorCamaras",
					"attribute":"analogInput_61551007c6b8ec24700ecca8"
				},
				{
					"type":"reactiveinductiveenergy",
					"entity":"ConsumosPorCamaras",
					"attribute":"analogInput_61551007c6b8ec6c280eccab"
				},
				{
					"type":"reactivecapacitiveenergy",
					"entity":"ConsumosPorCamaras",
					"attribute":"analogInput_61551007c6b8ec62c90eccae"
				},
				{
					"type":"apparentenergy",
					"entity":"ConsumosPorCamaras",
					"attribute":"analogInput_61551007c6b8ecc68d0eccb1"
				}
			],
			"other":[
				{
					"type":"text",
					"description":"Bitempera 5",
					"x":131,
					"y":203,
					"width":180,
					"height":50,
					"font":"Arial",
					"fontsize":18
				},
				{
					"type":"temperature",
					"description":"Temperatura 1 (centro)",
					"units":"ºC",
					"x":180,
					"y":282,
					"width":80,
					"height":30,
					"entity":"IoTConnector:00027",
					"attribute":"analogInput_614cc3b98562c068fff16ca0"
				}
			]
		},
		{
			"background":"/img/camaraBitempera6.png",
			"description":"Bitempera 6",
			"width":380,
			"height":600,
			"power":[
				{
					"type":"activepower",
					"entity":"ConsumosPorCamaras",
					"attribute":"analogInput_61551007c6b8ec2f640eccb4"
				},
				{
					"type":"reactiveinductivepower",
					"entity":"ConsumosPorCamaras",
					"attribute":"analogInput_61551007c6b8ecda510eccb7"
				},
				{
					"type":"reactivecapacitivepower",
					"entity":"ConsumosPorCamaras",
					"attribute":"analogInput_61551007c6b8ec67f90eccba"
				},
				{
					"type":"apparentpower",
					"entity":"ConsumosPorCamaras",
					"attribute":"analogInput_61551007c6b8ec56240eccbd"
				}
			],
			"energy":[
				{
					"type":"activeenergy",
					"entity":"ConsumosPorCamaras",
					"attribute":"analogInput_61551007c6b8eca9be0eccc0"
				},
				{
					"type":"reactiveinductiveenergy",
					"entity":"ConsumosPorCamaras",
					"attribute":"analogInput_61551007c6b8ecc6a10eccc3"
				},
				{
					"type":"reactivecapacitiveenergy",
					"entity":"ConsumosPorCamaras",
					"attribute":"analogInput_61551007c6b8ec9ff20eccc6"
				},
				{
					"type":"apparentenergy",
					"entity":"ConsumosPorCamaras",
					"attribute":"analogInput_61551007c6b8eca2400eccc9"
				}
			],
			"other":[
				{
					"type":"text",
					"description":"Bitempera 6",
					"x":103,
					"y":190,
					"width":180,
					"height":50,
					"font":"Arial",
					"fontsize":18
				},
				{
					"type":"temperature",
					"description":"Temperatura 1 (centro)",
					"units":"ºC",
					"x":151,
					"y":297,
					"width":80,
					"height":30,
					"entity":"IoTConnector:00027",
					"attribute":"analogInput_614cc3b98562c084ebf16ca3"
				}
			]
		}
	]
}
